digraph "CryptoDelegate"
{
  edge [fontname="Helvetica",fontsize="10",labelfontname="Helvetica",labelfontsize="10"];
  node [fontname="Helvetica",fontsize="10",shape=record];
  Node0 [label="CryptoDelegate",height=0.2,width=0.4,color="black", fillcolor="grey75", style="filled", fontcolor="black"];
  Node1 -> Node0 [dir="back",color="midnightblue",fontsize="10",style="solid",fontname="Helvetica"];
  Node1 [label="AssetManagerCryptoDelegate",height=0.2,width=0.4,color="black", fillcolor="white", style="filled",URL="$class_asset_manager_crypto_delegate.html",tooltip="AssetManagerCryptoDelegate class. "];
}
